<?xml version="1.0" encoding="utf-8"?>
<!-- Generator: Adobe Illustrator 19.2.1, SVG Export Plug-In . SVG Version: 6.00 Build 0)  -->
<svg version="1.1" id="icecream" xmlns="http://www.w3.org/2000/svg" xmlns:xlink="http://www.w3.org/1999/xlink" x="0px" y="0px"
	 viewBox="0 0 175.2 291.6" enable-background="new 0 0 175.2 291.6" xml:space="preserve">
<g id="chocolate_x5F_back">
	<path id="XMLID_245_" fill="#44231E" d="M41.5,66c1.1-0.2,2.1-0.2,3.1,0.1c-0.4-0.8-0.7-1.6-0.8-2.5c-1.1-5.4,1.7-10.7,6.6-12.8
		L17.3,8.9L0,22.8c0.7,0.6,26,32.9,36.8,46.8C37.8,67.8,39.4,66.5,41.5,66z"/>
</g>
<g id="cone">
	<path id="XMLID_242_" fill="#FDCD7E" d="M90.4,291.6L90.4,291.6c-4.5,0-8.5-3.3-10.3-8.4L29.2,138.8c-1-2.9,0.7-6.2,3.2-6.2h116
		c2.5,0,4.3,3.3,3.2,6.2l-50.9,144.4C98.9,288.4,94.9,291.6,90.4,291.6z"/>
	<polygon id="XMLID_216_" fill="#FFE1B2" points="35.4,156.4 132.6,192.9 154.3,132.6 31.3,134.2 30.4,140.9 	"/>
</g>
<g id="cone_x5F_detail">
	<polygon id="XMLID_241_" fill="#FDCD7E" points="103.2,219.8 115.9,225 119.3,215.3 116.8,214.3 	"/>
	<polygon id="XMLID_240_" fill="#FDCD7E" points="69.5,237.8 71.6,243.8 77.9,241.2 	"/>
	<polygon id="XMLID_239_" fill="#FDCD7E" points="81.4,271.5 82.8,275.7 90.6,278.8 98,275.8 99.5,271.4 90.6,267.8 	"/>
	<polygon id="XMLID_238_" fill="#FDCD7E" points="109.3,243.7 111.3,237.9 103.2,241.2 	"/>
	<polygon id="XMLID_237_" fill="#FDCD7E" points="103.2,198.4 116.8,204 124.4,200.9 125.9,196.6 116.8,192.9 	"/>
	<polygon id="XMLID_236_" fill="#FDCD7E" points="77.9,198.4 64.3,192.9 55,196.7 56.4,200.7 64.3,204 	"/>
	<polygon id="XMLID_235_" fill="#FDCD7E" points="119.3,138.8 114.4,138.8 116.8,139.8 	"/>
	<polygon id="XMLID_234_" fill="#FDCD7E" points="135.7,168.8 137.8,162.9 129.5,166.3 	"/>
	<polygon id="XMLID_233_" fill="#FDCD7E" points="66.8,138.8 61.8,138.8 64.3,139.8 	"/>
	<path id="XMLID_232_" fill="#FDCD7E" d="M39.3,139.9c-0.4-0.1-0.7-0.4-1-0.6l-3.1,1.3l3.4,9.7l13-5.3L39.3,139.9z"/>
	<polygon id="XMLID_231_" fill="#FDCD7E" points="43,162.8 45.2,168.9 51.6,166.3 	"/>
	<polygon id="XMLID_230_" fill="#FDCD7E" points="64.3,214.3 61.6,215.4 65,225.1 77.9,219.8 	"/>
	<polygon id="XMLID_229_" fill="#FDCD7E" points="103.2,177 116.8,182.6 130.4,177 116.8,171.5 	"/>
	<polygon id="XMLID_228_" fill="#FDCD7E" points="77,187.7 90.6,193.3 104.2,187.7 90.6,182.2 	"/>
	<polygon id="XMLID_226_" fill="#FDCD7E" points="104.2,144.9 90.6,139.4 77,144.9 90.6,150.5 	"/>
	<path id="XMLID_225_" fill="#FDCD7E" d="M142.8,139.3c-0.3,0.3-0.6,0.5-1,0.6l-12.3,5l12.8,5.2l3.4-9.7L142.8,139.3z"/>
	<polygon id="XMLID_224_" fill="#FDCD7E" points="77,209.1 90.6,214.6 104.2,209.1 90.6,203.6 	"/>
	<polygon id="XMLID_223_" fill="#FDCD7E" points="103.2,155.6 116.8,161.2 130.4,155.6 116.8,150.1 	"/>
	<polygon id="XMLID_222_" fill="#FDCD7E" points="77.9,155.6 64.3,150.1 50.7,155.6 64.3,161.2 	"/>
	<polygon id="XMLID_221_" fill="#FDCD7E" points="90.6,171.9 104.2,166.3 90.6,160.8 77,166.3 	"/>
	<polygon id="XMLID_220_" fill="#FDCD7E" points="64.3,171.5 50.7,177 64.3,182.6 77.9,177 	"/>
	<polygon id="XMLID_219_" fill="#FDCD7E" points="77,230.5 90.6,236 104.2,230.5 90.6,225 	"/>
	<polygon id="XMLID_218_" fill="#FDCD7E" points="77,251.9 90.6,257.4 104.2,251.9 90.6,246.4 	"/>
</g>
<g id="cream">
	<path id="XMLID_244_" fill="#EA5554" d="M18.6,134.2H162c6.5-15.8,7.9-33.9,2.6-51.6c-12.2-41-55.4-64.4-96.4-52.2
		C27.1,42.6,3.8,85.8,16,126.8C16.7,129.4,17.6,131.8,18.6,134.2z"/>
	<path id="XMLID_243_" fill="#EE7476" d="M15.4,84.9c7.3,0,14.7-1,22-3.2c26.9-8,46.1-29.2,52.8-54.5c-7.3,0-14.7,1-22,3.2
		C41.3,38.4,22.1,59.7,15.4,84.9z"/>
	<path id="XMLID_215_" fill="#EA5554" d="M153.3,104.1c-6.1,0-11.6,2.5-15.6,6.5c-1-0.2-2-0.3-3.1-0.3c-7,0-13,3.8-16.3,9.4
		c-1.3-0.4-2.7-0.6-4.2-0.6c-1.5,0-3,0.2-4.4,0.6c-1.9-11.3-11.8-20-23.7-20c-10.4,0-19.2,6.6-22.6,15.8c-2.5-1.2-5.2-1.9-8.2-1.9
		c-3.1,0-6,0.7-8.6,2.1c-3.7-7-11-11.7-19.4-11.7c-12.1,0-21.9,9.8-21.9,21.9c0,12.1,9.8,21.9,21.9,21.9c4.8,0,9.3-1.6,12.9-4.2
		c3.4,4.6,8.9,7.6,15.1,7.6c6.6,0,12.5-3.4,15.8-8.6c4.1,3.3,9.3,5.2,14.9,5.2c5.6,0,10.8-1.9,14.9-5.2c2.7,4.5,7.7,7.4,13.3,7.4
		c4.4,0,8.3-1.8,11.2-4.7c2.7,1.6,5.9,2.5,9.3,2.5c3.2,0,6.3-0.8,9-2.3c2.9,1.4,6.2,2.3,9.7,2.3c12.1,0,21.9-9.8,21.9-21.9
		C175.2,113.9,165.4,104.1,153.3,104.1z"/>
</g>
<g id="chocolate">
	<path id="XMLID_214_" fill="#663E34" d="M39.6,60.9c1.1,0,2.1,0.3,3,0.7c-0.2-0.8-0.3-1.7-0.3-2.6c0-5.5,3.9-10.1,9-11.2L27.5,0
		L7.7,10.1c0.6,0.7,18.8,37.5,26.6,53.3C35.6,61.9,37.5,60.9,39.6,60.9z"/>
	<polygon id="XMLID_213_" fill="#996F63" points="9.7,13.9 29.6,4.1 27.5,0 7.7,10.1 	"/>
</g>
<g id="XMLID_162_">
	<g id="eyes">
		<g id="left">
			<circle id="XMLID_199_" fill="#44231E" cx="66.9" cy="82.7" r="8.6"/>
			<circle id="XMLID_197_" fill="#FFFFFF" cx="63.7" cy="79.5" r="3.2"/>
		</g>
		<g id="right">
			<circle id="XMLID_186_" fill="#44231E" cx="113.7" cy="82.7" r="8.6"/>
			<circle id="XMLID_183_" fill="#FFFFFF" cx="110.4" cy="79.5" r="3.2"/>
		</g>
	</g>
	<path id="mouth" fill="none" stroke="#44231E" stroke-width="3.7206" stroke-linecap="round" stroke-miterlimit="10" d="M83.3,94.8
		c0,0,6.5,10.5,13.6,0"/>
</g>
</svg>
